{
  "db": "PostgreSQL",
  "301b2761ff6efed19294d29199378be6918e7f2be5149b0153b70e4ce931f069": {
    "query": "\n            SELECT id, content, created_at, invalid, user_id\n            FROM token_promises\n            WHERE\n                user_id = ($1)\n                AND content = ($2)\n            ",
    "describe": {
      "columns": [
        {
          "ordinal": 0,
          "name": "id",
          "type_info": "Int4"
        },
        {
          "ordinal": 1,
          "name": "content",
          "type_info": "Text"
        },
        {
          "ordinal": 2,
          "name": "created_at",
          "type_info": "Timestamptz"
        },
        {
          "ordinal": 3,
          "name": "invalid",
          "type_info": "Bool"
        },
        {
          "ordinal": 4,
          "name": "user_id",
          "type_info": "Int4"
        }
      ],
      "parameters": {
        "Left": [
          "Int4",
          "Text"
        ]
      },
      "nullable": [
        false,
        false,
        false,
        false,
        false
      ]
    }
  },
  "3681d69a39842271ce5671fab7d8583c4d225d93faf991a5b1be97b015964dfe": {
    "query": "\n            SELECT id, content, created_at\n            FROM invalidated_auth_tokens\n            WHERE content = $1\n            ",
    "describe": {
      "columns": [
        {
          "ordinal": 0,
          "name": "id",
          "type_info": "Int4"
        },
        {
          "ordinal": 1,
          "name": "content",
          "type_info": "Text"
        },
        {
          "ordinal": 2,
          "name": "created_at",
          "type_info": "Timestamptz"
        }
      ],
      "parameters": {
        "Left": [
          "Text"
        ]
      },
      "nullable": [
        false,
        false,
        false
      ]
    }
  },
  "3e7eb5947eed9f5c3ac427937bc6e48e2a9e85cae901a7b311bb079592da802a": {
    "query": "\n            INSERT INTO veto_votes (user_id, act_id)\n            VALUES ($1, $2)\n            RETURNING id, user_id, act_id, created_at\n            ",
    "describe": {
      "columns": [
        {
          "ordinal": 0,
          "name": "id",
          "type_info": "Int4"
        },
        {
          "ordinal": 1,
          "name": "user_id",
          "type_info": "Int4"
        },
        {
          "ordinal": 2,
          "name": "act_id",
          "type_info": "Text"
        },
        {
          "ordinal": 3,
          "name": "created_at",
          "type_info": "Timestamptz"
        }
      ],
      "parameters": {
        "Left": [
          "Int4",
          "Text"
        ]
      },
      "nullable": [
        false,
        false,
        false,
        false
      ]
    }
  },
  "46e1e9ba511e8007d437881f5f083a07129a28f85676c764f93ad0e0dbc8e866": {
    "query": "\n            INSERT INTO token_promises (content, user_id)\n            VALUES ($1, $2)\n            RETURNING id, content, created_at, invalid, user_id\n            ",
    "describe": {
      "columns": [
        {
          "ordinal": 0,
          "name": "id",
          "type_info": "Int4"
        },
        {
          "ordinal": 1,
          "name": "content",
          "type_info": "Text"
        },
        {
          "ordinal": 2,
          "name": "created_at",
          "type_info": "Timestamptz"
        },
        {
          "ordinal": 3,
          "name": "invalid",
          "type_info": "Bool"
        },
        {
          "ordinal": 4,
          "name": "user_id",
          "type_info": "Int4"
        }
      ],
      "parameters": {
        "Left": [
          "Text",
          "Int4"
        ]
      },
      "nullable": [
        false,
        false,
        false,
        false,
        false
      ]
    }
  },
  "643366af2933e44119a50b38234351914e788bd111dd7bcd86b6e4b07e766a72": {
    "query": "\n            DELETE FROM veto_votes\n            WHERE\n                user_id = $1\n                AND act_id = $2\n            ",
    "describe": {
      "columns": [],
      "parameters": {
        "Left": [
          "Int4",
          "Text"
        ]
      },
      "nullable": []
    }
  },
  "837f2e98c09693361b3df8fa645cf35665380ec09bd630090a7a0bd9b2de42c6": {
    "query": "\n            INSERT INTO invalidated_auth_tokens (content)\n            VALUES ($1)\n            RETURNING id, content, created_at\n            ",
    "describe": {
      "columns": [
        {
          "ordinal": 0,
          "name": "id",
          "type_info": "Int4"
        },
        {
          "ordinal": 1,
          "name": "content",
          "type_info": "Text"
        },
        {
          "ordinal": 2,
          "name": "created_at",
          "type_info": "Timestamptz"
        }
      ],
      "parameters": {
        "Left": [
          "Text"
        ]
      },
      "nullable": [
        false,
        false,
        false
      ]
    }
  },
  "d2af8e4c0109a0b490422dc3f2b106b2705440017162a526f5610b460a38321f": {
    "query": "\n            UPDATE token_promises\n            SET invalid = true\n            WHERE user_id = $1 AND content = $2\n            ",
    "describe": {
      "columns": [],
      "parameters": {
        "Left": [
          "Int4",
          "Text"
        ]
      },
      "nullable": []
    }
  },
  "eeecebdb0f9186ca87a4d1dbf280e22074915352a8813030b1e3f3c64ab56258": {
    "query": "\n            INSERT INTO users (email)\n            VALUES ($1) RETURNING id, email, created_at\n            ",
    "describe": {
      "columns": [
        {
          "ordinal": 0,
          "name": "id",
          "type_info": "Int4"
        },
        {
          "ordinal": 1,
          "name": "email",
          "type_info": "Text"
        },
        {
          "ordinal": 2,
          "name": "created_at",
          "type_info": "Timestamptz"
        }
      ],
      "parameters": {
        "Left": [
          "Text"
        ]
      },
      "nullable": [
        false,
        false,
        false
      ]
    }
  },
  "f1c2df39cdf0d88e9ffa6cd045c6bdf7e117cfc4a23362d6fec2ff8cf121407f": {
    "query": "SELECT * FROM users WHERE email = $1 ",
    "describe": {
      "columns": [
        {
          "ordinal": 0,
          "name": "id",
          "type_info": "Int4"
        },
        {
          "ordinal": 1,
          "name": "email",
          "type_info": "Text"
        },
        {
          "ordinal": 2,
          "name": "created_at",
          "type_info": "Timestamptz"
        }
      ],
      "parameters": {
        "Left": [
          "Text"
        ]
      },
      "nullable": [
        false,
        false,
        false
      ]
    }
  },
  "f724c97d34ab5f424dc2d192b5ada6bb88af540dd11a723cbc2edd5d355d6e92": {
    "query": "SELECT * FROM users WHERE id = $1 ",
    "describe": {
      "columns": [
        {
          "ordinal": 0,
          "name": "id",
          "type_info": "Int4"
        },
        {
          "ordinal": 1,
          "name": "email",
          "type_info": "Text"
        },
        {
          "ordinal": 2,
          "name": "created_at",
          "type_info": "Timestamptz"
        }
      ],
      "parameters": {
        "Left": [
          "Int4"
        ]
      },
      "nullable": [
        false,
        false,
        false
      ]
    }
  },
  "fe168b003b0ea72441f6951fe078d62ab62cf64390e32b837a7665f0c294fcff": {
    "query": "\n            SELECT *\n            FROM veto_votes\n            WHERE user_id = $1\n            ",
    "describe": {
      "columns": [
        {
          "ordinal": 0,
          "name": "id",
          "type_info": "Int4"
        },
        {
          "ordinal": 1,
          "name": "act_id",
          "type_info": "Text"
        },
        {
          "ordinal": 2,
          "name": "user_id",
          "type_info": "Int4"
        },
        {
          "ordinal": 3,
          "name": "created_at",
          "type_info": "Timestamptz"
        }
      ],
      "parameters": {
        "Left": [
          "Int4"
        ]
      },
      "nullable": [
        false,
        false,
        false,
        false
      ]
    }
  }
}